#produit_id,#fournisseur_id,#num_serie,#ref_fournisseur,#prix_unitaire
4,36,8468435,dx_rf52,55
4,36,8468436,dx_rf52,55
4,36,8468437,dx_rf52,55
4,36,8468438,dx_rf52,55
4,36,8468439,dx_rf52,55
4,36,8468440,dx_rf52,55
4,36,8468441,dx_rf52,55
4,36,8468442,dx_rf52,55
4,36,8468443,dx_rf52,55
4,36,8468444,dx_rf52,55
4,36,8468445,dx_rf52,55
4,36,8468446,dx_rf52,55
4,36,8468447,dx_rf52,55
4,36,8468448,dx_rf52,55
